digraph "org.apache.maven:maven" {
        "org.apache.maven:apache-maven" -> "org.apache.maven:maven-embedder" ;
        "org.apache.maven:apache-maven" -> "org.apache.maven:maven-core" ;
        "org.apache.maven:apache-maven" -> "org.apache.maven:maven-compat" ;
        "org.apache.maven:apache-maven" -> "org.eclipse.sisu:org.eclipse.sisu.plexus" ;
        "org.apache.maven:apache-maven" -> "commons-cli:commons-cli" ;
        "org.apache.maven:apache-maven" -> "org.apache.maven.wagon:wagon-http:shaded" ;
        "org.apache.maven:apache-maven" -> "org.apache.maven.wagon:wagon-file" ;
        "org.apache.maven:apache-maven" -> "org.eclipse.aether:aether-connector-basic" ;
        "org.apache.maven:apache-maven" -> "org.eclipse.aether:aether-transport-wagon" ;
        "org.apache.maven:apache-maven" -> "org.slf4j:slf4j-simple" ;
        "org.apache.maven:apache-maven" -> "junit:junit" ;
        "org.apache.maven:maven-embedder" -> "org.apache.maven:maven-settings" ;
        "org.apache.maven:maven-embedder" -> "org.apache.maven:maven-plugin-api" ;
        "org.apache.maven:maven-embedder" -> "org.apache.maven:maven-model-builder" ;
        "org.apache.maven:maven-embedder" -> "org.codehaus.plexus:plexus-utils" ;
        "org.apache.maven:maven-embedder" -> "org.codehaus.plexus:plexus-classworlds" ;
        "org.apache.maven:maven-embedder" -> "org.codehaus.plexus:plexus-component-annotations" ;
        "org.apache.maven:maven-embedder" -> "org.sonatype.plexus:plexus-sec-dispatcher" ;
        "org.apache.maven:maven-embedder" -> "org.sonatype.plexus:plexus-cipher" ;
        "org.apache.maven:maven-embedder" -> "org.slf4j:slf4j-api" ;
        "org.apache.maven:maven-model-builder" -> "org.apache.maven:maven-builder-support" ;
        "org.apache.maven:maven-model-builder" -> "com.google.guava:guava" ;
        "org.apache.maven:maven-core" -> "org.apache.maven:maven-model" ;
        "org.apache.maven:maven-core" -> "org.apache.maven:maven-settings-builder" ;
        "org.apache.maven:maven-core" -> "org.apache.maven:maven-repository-metadata" ;
        "org.apache.maven:maven-core" -> "org.apache.maven:maven-artifact" ;
        "org.apache.maven:maven-core" -> "org.apache.maven:maven-aether-provider" ;
        "org.apache.maven:maven-core" -> "org.eclipse.aether:aether-impl" ;
        "org.apache.maven:maven-core" -> "org.eclipse.aether:aether-api" ;
        "org.apache.maven:maven-core" -> "org.eclipse.aether:aether-util" ;
        "org.apache.maven:maven-core" -> "org.sonatype.sisu:sisu-guice:no_aop" ;
        "org.apache.maven:maven-core" -> "org.codehaus.plexus:plexus-interpolation" ;
        "org.sonatype.sisu:sisu-guice:no_aop" -> "javax.inject:javax.inject:" ;
        "org.sonatype.sisu:sisu-guice:no_aop" -> "aopalliance:aopalliance" ;
        "org.apache.maven:maven-compat" -> "org.apache.maven.wagon:wagon-provider-api" ;
        "org.eclipse.sisu:org.eclipse.sisu.plexus" -> "javax.enterprise:cdi-api" ;
        "org.eclipse.sisu:org.eclipse.sisu.plexus" -> "org.eclipse.sisu:org.eclipse.sisu.inject" ;
        "javax.enterprise:cdi-api" -> "javax.annotation:jsr250-api" ;
        "org.apache.maven.wagon:wagon-http:shaded" -> "org.apache.maven.wagon:wagon-http-shared" ;
        "org.apache.maven.wagon:wagon-http-shared" -> "org.jsoup:jsoup" ;
        "org.apache.maven.wagon:wagon-http-shared" -> "commons-io:commons-io" ;
        "org.apache.maven.wagon:wagon-file" -> "commons-lang:commons-lang" ;
        "org.eclipse.aether:aether-connector-basic" -> "org.eclipse.aether:aether-spi" ;
        "junit:junit" -> "org.hamcrest:hamcrest-core" ;
        "org.apache.maven:maven" -> "junit:junit" ;
        "junit:junit" -> "org.hamcrest:hamcrest-core" ;
        "org.apache.maven:maven-aether-provider" -> "org.apache.maven:maven-model" ;
        "org.apache.maven:maven-aether-provider" -> "org.apache.maven:maven-model-builder" ;
        "org.apache.maven:maven-aether-provider" -> "org.apache.maven:maven-repository-metadata" ;
        "org.apache.maven:maven-aether-provider" -> "org.eclipse.aether:aether-api" ;
        "org.apache.maven:maven-aether-provider" -> "org.eclipse.aether:aether-spi" ;
        "org.apache.maven:maven-aether-provider" -> "org.eclipse.aether:aether-util" ;
        "org.apache.maven:maven-aether-provider" -> "org.eclipse.aether:aether-impl" ;
        "org.apache.maven:maven-aether-provider" -> "org.codehaus.plexus:plexus-component-annotations" ;
        "org.apache.maven:maven-aether-provider" -> "org.codehaus.plexus:plexus-utils" ;
        "org.apache.maven:maven-aether-provider" -> "org.sonatype.sisu:sisu-guice:no_aop" ;
        "org.apache.maven:maven-aether-provider" -> "org.eclipse.aether:aether-connector-basic" ;
        "org.apache.maven:maven-aether-provider" -> "org.eclipse.aether:aether-transport-wagon" ;
        "org.apache.maven:maven-aether-provider" -> "org.apache.maven.wagon:wagon-file" ;
        "org.apache.maven:maven-aether-provider" -> "org.eclipse.sisu:org.eclipse.sisu.plexus" ;
        "org.apache.maven:maven-aether-provider" -> "org.mockito:mockito-core" ;
        "org.apache.maven:maven-aether-provider" -> "junit:junit" ;
        "org.apache.maven:maven-model-builder" -> "org.codehaus.plexus:plexus-interpolation" ;
        "org.apache.maven:maven-model-builder" -> "org.apache.maven:maven-builder-support" ;
        "org.apache.maven:maven-model-builder" -> "com.google.guava:guava" ;
        "org.sonatype.sisu:sisu-guice:no_aop" -> "javax.inject:javax.inject:" ;
        "org.eclipse.aether:aether-transport-wagon" -> "org.apache.maven.wagon:wagon-provider-api" ;
        "org.apache.maven.wagon:wagon-file" -> "commons-lang:commons-lang" ;
        "org.eclipse.sisu:org.eclipse.sisu.plexus" -> "javax.enterprise:cdi-api" ;
        "org.eclipse.sisu:org.eclipse.sisu.plexus" -> "org.eclipse.sisu:org.eclipse.sisu.inject" ;
        "org.eclipse.sisu:org.eclipse.sisu.plexus" -> "org.codehaus.plexus:plexus-classworlds" ;
        "javax.enterprise:cdi-api" -> "javax.annotation:jsr250-api" ;
        "org.mockito:mockito-core" -> "org.hamcrest:hamcrest-core" ;
        "org.mockito:mockito-core" -> "org.objenesis:objenesis" ;
        "org.apache.maven:maven-artifact" -> "org.codehaus.plexus:plexus-utils" ;
        "org.apache.maven:maven-artifact" -> "junit:junit" ;
        "junit:junit" -> "org.hamcrest:hamcrest-core" ;
        "org.apache.maven:maven-builder-support" -> "org.codehaus.plexus:plexus-utils" ;
        "org.apache.maven:maven-builder-support" -> "junit:junit" ;
        "junit:junit" -> "org.hamcrest:hamcrest-core" ;
        "org.apache.maven:maven-compat" -> "org.apache.maven:maven-model" ;
        "org.apache.maven:maven-compat" -> "org.apache.maven:maven-model-builder" ;
        "org.apache.maven:maven-compat" -> "org.apache.maven:maven-settings" ;
        "org.apache.maven:maven-compat" -> "org.apache.maven:maven-artifact" ;
        "org.apache.maven:maven-compat" -> "org.apache.maven:maven-core" ;
        "org.apache.maven:maven-compat" -> "org.codehaus.plexus:plexus-utils" ;
        "org.apache.maven:maven-compat" -> "org.codehaus.plexus:plexus-interpolation" ;
        "org.apache.maven:maven-compat" -> "org.eclipse.sisu:org.eclipse.sisu.plexus" ;
        "org.apache.maven:maven-compat" -> "org.codehaus.plexus:plexus-component-annotations" ;
        "org.apache.maven:maven-compat" -> "org.apache.maven.wagon:wagon-provider-api" ;
        "org.apache.maven:maven-compat" -> "org.apache.maven.wagon:wagon-file" ;
        "org.apache.maven:maven-compat" -> "org.eclipse.aether:aether-connector-basic" ;
        "org.apache.maven:maven-compat" -> "org.eclipse.aether:aether-transport-wagon" ;
        "org.apache.maven:maven-compat" -> "junit:junit" ;
        "org.apache.maven:maven-model-builder" -> "org.apache.maven:maven-builder-support" ;
        "org.apache.maven:maven-model-builder" -> "com.google.guava:guava" ;
        "org.apache.maven:maven-core" -> "org.apache.maven:maven-settings-builder" ;
        "org.apache.maven:maven-core" -> "org.apache.maven:maven-repository-metadata" ;
        "org.apache.maven:maven-core" -> "org.apache.maven:maven-plugin-api" ;
        "org.apache.maven:maven-core" -> "org.apache.maven:maven-aether-provider" ;
        "org.apache.maven:maven-core" -> "org.eclipse.aether:aether-impl" ;
        "org.apache.maven:maven-core" -> "org.eclipse.aether:aether-api" ;
        "org.apache.maven:maven-core" -> "org.eclipse.aether:aether-util" ;
        "org.apache.maven:maven-core" -> "org.sonatype.sisu:sisu-guice:no_aop" ;
        "org.apache.maven:maven-core" -> "org.codehaus.plexus:plexus-classworlds" ;
        "org.apache.maven:maven-core" -> "org.sonatype.plexus:plexus-sec-dispatcher" ;
        "org.sonatype.sisu:sisu-guice:no_aop" -> "javax.inject:javax.inject:" ;
        "org.sonatype.sisu:sisu-guice:no_aop" -> "aopalliance:aopalliance" ;
        "org.sonatype.plexus:plexus-sec-dispatcher" -> "org.sonatype.plexus:plexus-cipher" ;
        "org.eclipse.sisu:org.eclipse.sisu.plexus" -> "javax.enterprise:cdi-api" ;
        "org.eclipse.sisu:org.eclipse.sisu.plexus" -> "org.eclipse.sisu:org.eclipse.sisu.inject" ;
        "javax.enterprise:cdi-api" -> "javax.annotation:jsr250-api" ;
        "org.apache.maven.wagon:wagon-file" -> "commons-lang:commons-lang" ;
        "org.eclipse.aether:aether-connector-basic" -> "org.eclipse.aether:aether-spi" ;
        "junit:junit" -> "org.hamcrest:hamcrest-core" ;
        "org.apache.maven:maven-core" -> "org.apache.maven:maven-model" ;
        "org.apache.maven:maven-core" -> "org.apache.maven:maven-settings" ;
        "org.apache.maven:maven-core" -> "org.apache.maven:maven-settings-builder" ;
        "org.apache.maven:maven-core" -> "org.apache.maven:maven-repository-metadata" ;
        "org.apache.maven:maven-core" -> "org.apache.maven:maven-artifact" ;
        "org.apache.maven:maven-core" -> "org.apache.maven:maven-plugin-api" ;
        "org.apache.maven:maven-core" -> "org.apache.maven:maven-model-builder" ;
        "org.apache.maven:maven-core" -> "org.apache.maven:maven-aether-provider" ;
        "org.apache.maven:maven-core" -> "org.eclipse.aether:aether-impl" ;
        "org.apache.maven:maven-core" -> "org.eclipse.aether:aether-api" ;
        "org.apache.maven:maven-core" -> "org.eclipse.aether:aether-util" ;
        "org.apache.maven:maven-core" -> "org.eclipse.sisu:org.eclipse.sisu.plexus" ;
        "org.apache.maven:maven-core" -> "org.sonatype.sisu:sisu-guice:no_aop" ;
        "org.apache.maven:maven-core" -> "org.codehaus.plexus:plexus-interpolation1" ;
        "org.apache.maven:maven-core" -> "org.codehaus.plexus:plexus-utils" ;
        "org.apache.maven:maven-core" -> "org.codehaus.plexus:plexus-classworlds" ;
        "org.apache.maven:maven-core" -> "org.codehaus.plexus:plexus-component-annotations" ;
        "org.apache.maven:maven-core" -> "org.sonatype.plexus:plexus-sec-dispatcher" ;
        "org.apache.maven:maven-core" -> "commons-jxpath:commons-jxpath" ;
        "org.apache.maven:maven-core" -> "org.mockito:mockito-core" ;
        "org.apache.maven:maven-core" -> "junit:junit" ;
        "org.apache.maven:maven-settings-builder" -> "org.apache.maven:maven-builder-support" ;
        "org.apache.maven:maven-model-builder" -> "com.google.guava:guava" ;
        "org.apache.maven:maven-aether-provider" -> "org.eclipse.aether:aether-spi" ;
        "org.eclipse.sisu:org.eclipse.sisu.plexus" -> "javax.enterprise:cdi-api" ;
        "org.eclipse.sisu:org.eclipse.sisu.plexus" -> "org.eclipse.sisu:org.eclipse.sisu.inject" ;
        "javax.enterprise:cdi-api" -> "javax.annotation:jsr250-api" ;
        "org.sonatype.sisu:sisu-guice:no_aop" -> "javax.inject:javax.inject:1" ;
        "org.sonatype.sisu:sisu-guice:no_aop" -> "aopalliance:aopalliance" ;
        "org.sonatype.plexus:plexus-sec-dispatcher" -> "org.sonatype.plexus:plexus-cipher" ;
        "org.mockito:mockito-core" -> "org.hamcrest:hamcrest-core" ;
        "org.mockito:mockito-core" -> "org.objenesis:objenesis" ;
        "org.apache.maven:maven-embedder" -> "org.apache.maven:maven-settings" ;
        "org.apache.maven:maven-embedder" -> "org.apache.maven:maven-core" ;
        "org.apache.maven:maven-embedder" -> "org.apache.maven:maven-plugin-api" ;
        "org.apache.maven:maven-embedder" -> "org.apache.maven:maven-model-builder" ;
        "org.apache.maven:maven-embedder" -> "org.apache.maven:maven-compat:runtime" ;
        "org.apache.maven:maven-embedder" -> "org.codehaus.plexus:plexus-utils" ;
        "org.apache.maven:maven-embedder" -> "org.codehaus.plexus:plexus-classworlds" ;
        "org.apache.maven:maven-embedder" -> "org.eclipse.sisu:org.eclipse.sisu.plexus" ;
        "org.apache.maven:maven-embedder" -> "org.codehaus.plexus:plexus-component-annotations" ;
        "org.apache.maven:maven-embedder" -> "org.sonatype.plexus:plexus-sec-dispatcher" ;
        "org.apache.maven:maven-embedder" -> "org.sonatype.plexus:plexus-cipher" ;
        "org.apache.maven:maven-embedder" -> "org.slf4j:slf4j-api" ;
        "org.apache.maven:maven-embedder" -> "org.slf4j:slf4j-simple" ;
        "org.apache.maven:maven-embedder" -> "ch.qos.logback:logback-classic" ;
        "org.apache.maven:maven-embedder" -> "commons-cli:commons-cli" ;
        "org.apache.maven:maven-embedder" -> "junit:junit" ;
        "org.apache.maven:maven-core" -> "org.apache.maven:maven-model" ;
        "org.apache.maven:maven-core" -> "org.apache.maven:maven-settings-builder" ;
        "org.apache.maven:maven-core" -> "org.apache.maven:maven-repository-metadata" ;
        "org.apache.maven:maven-core" -> "org.apache.maven:maven-artifact" ;
        "org.apache.maven:maven-core" -> "org.apache.maven:maven-aether-provider" ;
        "org.apache.maven:maven-core" -> "org.eclipse.aether:aether-impl" ;
        "org.apache.maven:maven-core" -> "org.eclipse.aether:aether-api" ;
        "org.apache.maven:maven-core" -> "org.eclipse.aether:aether-util" ;
        "org.apache.maven:maven-core" -> "org.sonatype.sisu:sisu-guice:no_aop" ;
        "org.apache.maven:maven-core" -> "org.codehaus.plexus:plexus-interpolation1" ;
        "org.apache.maven:maven-aether-provider" -> "org.eclipse.aether:aether-spi" ;
        "org.sonatype.sisu:sisu-guice:no_aop" -> "javax.inject:javax.inject:1" ;
        "org.sonatype.sisu:sisu-guice:no_aop" -> "aopalliance:aopalliance" ;
        "org.apache.maven:maven-model-builder" -> "org.apache.maven:maven-builder-support" ;
        "org.apache.maven:maven-model-builder" -> "com.google.guava:guava" ;
        "org.apache.maven:maven-compat:runtime" -> "org.apache.maven.wagon:wagon-provider-api:runtime" ;
        "org.eclipse.sisu:org.eclipse.sisu.plexus" -> "javax.enterprise:cdi-api" ;
        "org.eclipse.sisu:org.eclipse.sisu.plexus" -> "org.eclipse.sisu:org.eclipse.sisu.inject" ;
        "javax.enterprise:cdi-api" -> "javax.annotation:jsr250-api" ;
        "ch.qos.logback:logback-classic" -> "ch.qos.logback:logback-core" ;
        "junit:junit" -> "org.hamcrest:hamcrest-core" ;
        "org.apache.maven:maven-model" -> "org.codehaus.plexus:plexus-utils" ;
        "org.apache.maven:maven-model" -> "junit:junit" ;
        "junit:junit" -> "org.hamcrest:hamcrest-core" ;
        "org.apache.maven:maven-model-builder" -> "org.codehaus.plexus:plexus-utils" ;
        "org.apache.maven:maven-model-builder" -> "org.codehaus.plexus:plexus-interpolation1" ;
        "org.apache.maven:maven-model-builder" -> "org.codehaus.plexus:plexus-component-annotations" ;
        "org.apache.maven:maven-model-builder" -> "org.apache.maven:maven-model" ;
        "org.apache.maven:maven-model-builder" -> "org.apache.maven:maven-builder-support" ;
        "org.apache.maven:maven-model-builder" -> "com.google.guava:guava" ;
        "org.apache.maven:maven-model-builder" -> "org.eclipse.sisu:org.eclipse.sisu.plexus" ;
        "org.apache.maven:maven-model-builder" -> "org.sonatype.sisu:sisu-guice:no_aop" ;
        "org.apache.maven:maven-model-builder" -> "xmlunit:xmlunit" ;
        "org.apache.maven:maven-model-builder" -> "junit:junit" ;
        "org.eclipse.sisu:org.eclipse.sisu.plexus" -> "javax.enterprise:cdi-api" ;
        "org.eclipse.sisu:org.eclipse.sisu.plexus" -> "org.eclipse.sisu:org.eclipse.sisu.inject" ;
        "org.eclipse.sisu:org.eclipse.sisu.plexus" -> "org.codehaus.plexus:plexus-classworlds" ;
        "javax.enterprise:cdi-api" -> "javax.annotation:jsr250-api" ;
        "org.sonatype.sisu:sisu-guice:no_aop" -> "javax.inject:javax.inject:1" ;
        "org.sonatype.sisu:sisu-guice:no_aop" -> "aopalliance:aopalliance" ;
        "junit:junit" -> "org.hamcrest:hamcrest-core" ;
        "org.apache.maven:maven-plugin-api" -> "org.apache.maven:maven-model" ;
        "org.apache.maven:maven-plugin-api" -> "org.apache.maven:maven-artifact" ;
        "org.apache.maven:maven-plugin-api" -> "org.eclipse.sisu:org.eclipse.sisu.plexus" ;
        "org.apache.maven:maven-plugin-api" -> "junit:junit" ;
        "org.apache.maven:maven-model" -> "org.codehaus.plexus:plexus-utils" ;
        "org.eclipse.sisu:org.eclipse.sisu.plexus" -> "javax.enterprise:cdi-api" ;
        "org.eclipse.sisu:org.eclipse.sisu.plexus" -> "org.eclipse.sisu:org.eclipse.sisu.inject" ;
        "org.eclipse.sisu:org.eclipse.sisu.plexus" -> "org.codehaus.plexus:plexus-component-annotations" ;
        "org.eclipse.sisu:org.eclipse.sisu.plexus" -> "org.codehaus.plexus:plexus-classworlds" ;
        "javax.enterprise:cdi-api" -> "javax.annotation:jsr250-api" ;
        "javax.enterprise:cdi-api" -> "javax.inject:javax.inject:1" ;
        "junit:junit" -> "org.hamcrest:hamcrest-core" ;
        "org.apache.maven:maven-repository-metadata" -> "org.codehaus.plexus:plexus-utils" ;
        "org.apache.maven:maven-repository-metadata" -> "junit:junit" ;
        "junit:junit" -> "org.hamcrest:hamcrest-core" ;
        "org.apache.maven:maven-settings" -> "org.codehaus.plexus:plexus-utils" ;
        "org.apache.maven:maven-settings" -> "junit:junit" ;
        "junit:junit" -> "org.hamcrest:hamcrest-core" ;
        "org.apache.maven:maven-settings-builder" -> "org.apache.maven:maven-builder-support" ;
        "org.apache.maven:maven-settings-builder" -> "org.codehaus.plexus:plexus-utils" ;
        "org.apache.maven:maven-settings-builder" -> "org.codehaus.plexus:plexus-interpolation1" ;
        "org.apache.maven:maven-settings-builder" -> "org.codehaus.plexus:plexus-component-annotations" ;
        "org.apache.maven:maven-settings-builder" -> "org.apache.maven:maven-settings" ;
        "org.apache.maven:maven-settings-builder" -> "org.sonatype.plexus:plexus-sec-dispatcher" ;
        "org.apache.maven:maven-settings-builder" -> "junit:junit" ;
        "org.sonatype.plexus:plexus-sec-dispatcher" -> "org.sonatype.plexus:plexus-cipher" ;
        "junit:junit" -> "org.hamcrest:hamcrest-core" ;
      
 }
